…
results <- map_df(mu_list, function(mu) {
  map_dfr(1:num_simulations, ~simulate_t_test(mu, n, sigma))
}, .id = "mu")

results %>%
  mutate(mu = as.numeric(str_extract(results$mu, "\\d+")))
```

    ## # A tibble: 30,000 × 3
    ##       mu mu_hat p_value
    ##    <dbl>  <dbl>   <dbl>
    ##  1     1  0.426   0.651
    ##  2     1  0.757   0.414
    ##  3     1  0.716   0.443
    ##  4     1  0.778   0.347
    ##  5     1  0.682   0.398
    ##  6     1 -0.363   0.643
    ##  7     1  1.00    0.339
    ##  8     1 -0.125   0.866
    ##  9     1  0.552   0.610
    ## 10     1  1.13    0.259
    ## # ℹ 29,990 more rows
…
